{
    "page": 1,
    "total_results": 316,
    "total_pages": 16,
    "results": [
        {
            "popularity": 10.794,
            "vote_count": 45,
            "video": false,
            "poster_path": "/kTca5fpKhFOKIiG0tz8tynhsWs5.jpg",
            "id": 593961,
            "adult": false,
            "backdrop_path": "/ptijXES6uMuKfKolTbAeV2LvEVN.jpg",
            "original_language": "en",
            "original_title": "Hello, Love, Goodbye",
            "genre_ids": [
                18,
                10749
            ],
            "title": "Hello, Love, Goodbye",
            "vote_average": 5.5,
            "overview": "A love story of Joy and Ethan, Filipino workers based in Hong Kong. Ethan, a bartender, is keen on romantically pursuing Joy, a domestic helper who is wholly dedicated to providing for her family.",
            "release_date": "2019-07-31"
        },
        {
            "popularity": 7.224,
            "vote_count": 128,
            "video": false,
            "poster_path": "/aPZOt9BR3gnk1RyX924ySq81S4P.jpg",
            "id": 14030,
            "adult": false,
            "backdrop_path": "/7dk68tDxfAadbsJ4aPuMOEwbC3i.jpg",
            "original_language": "en",
            "original_title": "Hello, Dolly!",
            "genre_ids": [
                35,
                10402,
                10749,
                10751
            ],
            "title": "Hello, Dolly!",
            "vote_average": 7.1,
            "overview": "Matchmaker, Dolly Levi takes a trip to Yonkers, New York to see the \"well-known unmarried half-a-millionaire,\" Horace Vandergelder. While there, she convinces him, his two stock clerks and his niece and her beau to go to New York City.",
            "release_date": "1969-12-12"
        },
        {
            "popularity": 3.261,
            "vote_count": 27,
            "video": false,
            "poster_path": "/xmGWJyH5PcHUEFuqwGx9xTDS1qW.jpg",
            "id": 35151,
            "adult": false,
            "backdrop_path": "/piDfTEdgPABqE9JC0LsuMvcVqtK.jpg",
            "original_language": "en",
            "original_title": "Hello Again",
            "genre_ids": [
                35,
                18,
                14,
                878,
                10749
            ],
            "title": "Hello Again",
            "vote_average": 5.3,
            "overview": "Lucy Chadman (Shelley Long) chokes to death and is resurrected by her loopy sister Zelda (Judith Ivey) on the one year anniversary of her death. Lucy, of course, does not believe she has actually been dead and thinks it is an elaborate hoax until she goes to her apartment and discovers her husband (Corbin Bernsen) married to her gold digging best friend, Kim (Sela Ward).",
            "release_date": "1987-11-06"
        },
        {
            "popularity": 6.505,
            "vote_count": 17,
            "video": false,
            "poster_path": "/x0tfMxPdkjFYort1BzkGJb7uGmg.jpg",
            "id": 628039,
            "adult": false,
            "backdrop_path": "/6L4LISre666baQA9kFpfRTwDNuJ.jpg",
            "original_language": "en",
            "original_title": "Hello, Privilege. It's Me, Chelsea",
            "genre_ids": [
                99
            ],
            "title": "Hello, Privilege. It's Me, Chelsea",
            "vote_average": 5.2,
            "overview": "In this documentary, Chelsea Handler explores how white privilege impacts American culture -- and the ways it’s benefited her own life and career.",
            "release_date": "2019-09-13"
        },
        {
            "popularity": 6.521,
            "vote_count": 287,
            "video": false,
            "poster_path": "/hLzelb2k68qgtnxuWLicqDoBNzV.jpg",
            "id": 320588,
            "adult": false,
            "backdrop_path": "/vMwMgSjFKsGbXhW6Nvy517ipMUo.jpg",
            "original_language": "en",
            "original_title": "Hello, My Name Is Doris",
            "genre_ids": [
                35,
                18,
                10749
            ],
            "title": "Hello, My Name Is Doris",
            "vote_average": 6.3,
            "overview": "A self-help seminar inspires a sixty-something woman to romantically pursue her younger co-worker.",
            "release_date": "2015-11-27"
        },
        {
            "popularity": 4.944,
            "id": 303623,
            "video": false,
            "vote_count": 79,
            "vote_average": 6.4,
            "title": "Hello Ladies: The Movie",
            "release_date": "2014-11-22",
            "original_language": "en",
            "original_title": "Hello Ladies: The Movie",
            "genre_ids": [
                35
            ],
            "backdrop_path": "/9ENOXfQ20TsRma0oFucpAdl0kbz.jpg",
            "adult": false,
            "overview": "When Stuart learns that his British ex-girlfriend is planning to visit Los Angeles with her husband, he sets out to impress them with his glamorous lifestyle, enlisting a Russian model he’s just met to play the role of his beautiful girlfriend. What could go wrong?",
            "poster_path": "/hMF4pVH7dp7YptvvqVCMFABXJz.jpg"
        },
        {
            "popularity": 3.783,
            "id": 446289,
            "video": false,
            "vote_count": 12,
            "vote_average": 5.5,
            "title": "Hello Again",
            "release_date": "2017-11-08",
            "original_language": "en",
            "original_title": "Hello Again",
            "genre_ids": [
                18,
                10402,
                10749
            ],
            "backdrop_path": "/4w7BJ1r8ovi1PAoFrpfIJYhfacm.jpg",
            "adult": false,
            "overview": "Ten lost souls slip in and out of one another's arms in a daisy-chained musical exploration of love's bittersweet embrace. A film adaptation of Michael John LaChiusa's celebrated musical, originally based on Arthur Schnitzler's play, La Ronde.",
            "poster_path": "/bHHt3HIr7MpYiRSw1XNxZm3B3cn.jpg"
        },
        {
            "popularity": 3.278,
            "id": 25484,
            "video": false,
            "vote_count": 19,
            "vote_average": 6.4,
            "title": "Michael McIntyre: Hello Wembley",
            "release_date": "2009-11-16",
            "original_language": "en",
            "original_title": "Michael McIntyre: Hello Wembley",
            "genre_ids": [
                35
            ],
            "backdrop_path": "/tElvjGrtx1E3OT5clTDu9QKNCCW.jpg",
            "adult": false,
            "overview": "Michael McIntyre, the comedy sensation of 2009, is back. Michael McIntyre’s meteoric rise to fame took the comedy world by storm last year. He sold out over 100 tour dates around the UK and his first DVD release Michael McIntyre Live & Laughing became the fastest selling debut stand up DVD of all time. Michael sets off on his biggest tour to date taking his new show to arenas around the UK.",
            "poster_path": "/uPox9iBDe8eROsO39JTXVCVgUa6.jpg"
        },
        {
            "popularity": 6.643,
            "vote_count": 74,
            "video": false,
            "poster_path": "/4wHoYhDZ5tfk3E2myRs8vdyoOv1.jpg",
            "id": 39929,
            "adult": false,
            "backdrop_path": "/jGDT2vnhIuunDAd6FpRLwgBKS44.jpg",
            "original_language": "en",
            "original_title": "Hello Mary Lou: Prom Night II",
            "genre_ids": [
                27
            ],
            "title": "Hello Mary Lou: Prom Night II",
            "vote_average": 5.7,
            "overview": "When Hamilton High's Prom Queen of 1957, Mary Lou Maloney is killed by her jilted boyfriend, she comes back for revenge 30 years later. Bill Nordham is now the principle of Hamilton High and his son is about to attend the prom with Vicki Carpenter. However, she is possessed by Mary Lou Maloney after opening a trunk in the school's basement. Now Bill must face the horror he left behind in 1957.",
            "release_date": "1987-10-16"
        },
        {
            "popularity": 5.491,
            "id": 84281,
            "video": false,
            "vote_count": 81,
            "vote_average": 5.9,
            "title": "Hello I Must Be Going",
            "release_date": "2012-09-07",
            "original_language": "en",
            "original_title": "Hello I Must Be Going",
            "genre_ids": [
                18,
                35,
                10749
            ],
            "backdrop_path": "/6ilhg0yLJha3Vva2uYbuOGX2zlJ.jpg",
            "adult": false,
            "overview": "Divorced and demoralised, Amy Minsky’s prospects look bleak when she is condemned to move back in with her parents at the age of 35. Everyone wants to help but, as her patience level with advice is plummeting, a bold teenage boy enters her life, igniting her last bit of self-esteem.",
            "poster_path": "/75vIVOUaUOkoJIkSRO7Rwu4KKj4.jpg"
        },
        {
            "popularity": 1.565,
            "id": 20365,
            "video": false,
            "vote_count": 12,
            "vote_average": 3.8,
            "title": "Hello",
            "release_date": "2008-10-10",
            "original_language": "hi",
            "original_title": "Hello",
            "genre_ids": [
                18
            ],
            "backdrop_path": "/hkOA2f11NYjkNZBowK1zefaoo01.jpg",
            "adult": false,
            "overview": "Call-center workers receive a phone call from God.",
            "poster_path": "/lzldL8ZBARt0vt6FdY4ahmIyXRD.jpg"
        },
        {
            "popularity": 3.135,
            "id": 361749,
            "video": false,
            "vote_count": 16,
            "vote_average": 6.8,
            "title": "Hello, It's Me",
            "release_date": "2015-09-27",
            "original_language": "en",
            "original_title": "Hello, It's Me",
            "genre_ids": [
                9648,
                18,
                10749,
                10770
            ],
            "backdrop_path": "/mHHMFQOQrQtNiNLm1yrWgzMccuu.jpg",
            "adult": false,
            "overview": "Two years after her husband dies in a sudden accident, Annie and her two children are left to cope with the loss. Annie can't imagine falling in love again, until she meets a wealthy bachelor who is drawn to her free spirit. Afraid to love again, she longs for guidance when she starts to develop feelings for this new man. Her prayers are answered when she starts receiving communications from her late husband that encourage her to follow her heart.",
            "poster_path": "/zJI1xX0Kjg9Rx2wX7pgefaKKACL.jpg"
        },
        {
            "popularity": 2.642,
            "vote_count": 16,
            "video": false,
            "poster_path": "/7o9Zr0npQhiUoLDegac7pgHQ01b.jpg",
            "id": 78551,
            "adult": false,
            "backdrop_path": "/tAKQLkxBEgoMYsYOvqlXPvzm4j0.jpg",
            "original_language": "en",
            "original_title": "Stephen Merchant: Hello Ladies... Live!",
            "genre_ids": [
                35
            ],
            "title": "Stephen Merchant: Hello Ladies... Live!",
            "vote_average": 7.2,
            "overview": "Stephen Merchant, the Emmy, BAFTA and Golden Globe award winning co-creator of The Office and Extras in his first ever live stand-up comedy tour and it has been well worth the wait. The Guardian says \"his performance is priceless...he can do funny just by being there\" and The Times states that \"the man is hilarious\". Stepping into the lime light, Stephen Merchant is in search of a wife, discussing the problems of being 6ft7 in life, but also when it comes to the ladies, watching porn on VHS and re-enacting the first play he ever wrote! This is one not to be missed!",
            "release_date": "2011-11-14"
        },
        {
            "popularity": 1.402,
            "vote_count": 6,
            "video": false,
            "poster_path": "/rIOC0lB3v0J5MDZLa9Eh1dhPLtK.jpg",
            "id": 31770,
            "adult": false,
            "backdrop_path": "/A7ugWK3eUzoE49IFNAE91v1Sck9.jpg",
            "original_language": "en",
            "original_title": "Hello, Frisco, Hello",
            "genre_ids": [
                35,
                10402,
                10749
            ],
            "title": "Hello, Frisco, Hello",
            "vote_average": 6.3,
            "overview": "In turn-of-the-century San Francisco, an ambitious vaudevillian takes his quartet from a honky tonk to the big time, while spurning the love of his troupe's star singer for a selfish heiress.",
            "release_date": "1943-03-26"
        },
        {
            "popularity": 3.963,
            "id": 460822,
            "video": false,
            "vote_count": 43,
            "vote_average": 7.1,
            "title": "Oh, Hello: On Broadway",
            "release_date": "2017-06-13",
            "original_language": "en",
            "original_title": "Oh, Hello: On Broadway",
            "genre_ids": [
                35
            ],
            "backdrop_path": "/vFOzXq7G9LTfCfQoYLWljEkdO3w.jpg",
            "adult": false,
            "overview": "Two delusional geriatrics reveal curious pasts, share a love of tuna and welcome a surprise guest in this filming of the popular Broadway comedy show.",
            "poster_path": "/4sgAcBkhKoazB4xFwiYfWIdLMNf.jpg"
        },
        {
            "popularity": 2.674,
            "vote_count": 21,
            "video": false,
            "poster_path": "/zeIVLNCZZZuCXUhiPWHxgtuIh9a.jpg",
            "id": 39347,
            "adult": false,
            "backdrop_path": "/j8hzmGVPomKpRH3YagdhQTC0KQx.jpg",
            "original_language": "hi",
            "original_title": "Hello Brother",
            "genre_ids": [
                35,
                10749
            ],
            "title": "Hello Brother",
            "vote_average": 5.3,
            "overview": "A ghost seeking revenge for his death haunts the man who received his heart in a transplant.",
            "release_date": "1999-09-10"
        },
        {
            "popularity": 0.634,
            "id": 277875,
            "video": false,
            "vote_count": 1,
            "vote_average": 7,
            "title": "Hello",
            "release_date": "1999-11-06",
            "original_language": "ta",
            "original_title": "Hello",
            "genre_ids": [
                10749
            ],
            "backdrop_path": "/vVmrYLfWxd9QnANaMRqxFKVzRUb.jpg",
            "adult": false,
            "overview": "What the movie has in store for you, wait and watch this space for more updates.",
            "poster_path": "/9oCm6DKCb0Wa3hUEUHVcfl7utvW.jpg"
        },
        {
            "popularity": 1.809,
            "id": 410200,
            "video": false,
            "vote_count": 2,
            "vote_average": 6,
            "title": "Hello Destroyer",
            "release_date": "2016-09-10",
            "original_language": "en",
            "original_title": "Hello Destroyer",
            "genre_ids": [
                18
            ],
            "backdrop_path": "/hXQM7eu7kLTzab7KLT287zxeiL4.jpg",
            "adult": false,
            "overview": "A young junior hockey player's life is shattered by an in-game act of violence. In an instant his life is abruptly turned upside down; torn from the fraternity of the team and the coinciding position of prominence, he is cast as a pariah and ostracized from the community. As he struggles with the repercussions of the event, desperate to find a means of reconciliation and a sense of identity, his personal journey ends up illuminating troubling systemic issues around violence.",
            "poster_path": "/9Qv2Q4597YQ9rWPrE8Jm171GWEL.jpg"
        },
        {
            "popularity": 5.187,
            "id": 139200,
            "video": false,
            "vote_count": 20,
            "vote_average": 6.4,
            "title": "Hello Sister, Goodbye Life",
            "release_date": "2006-01-01",
            "original_language": "en",
            "original_title": "Hello Sister, Goodbye Life",
            "genre_ids": [
                18,
                10770
            ],
            "backdrop_path": null,
            "adult": false,
            "overview": "A college student must take care of her 7-year-old half sister after the death of their parents.",
            "poster_path": "/qtkWdOQh07lwcq6OhiLDRmCprmR.jpg"
        },
        {
            "popularity": 1.872,
            "vote_count": 18,
            "video": false,
            "poster_path": "/t02RkrJQ2XyzZLDZIPtnOWqeWn6.jpg",
            "id": 138977,
            "adult": false,
            "backdrop_path": "/6DHypCjTymSftXrNl7mUmoWCCpz.jpg",
            "original_language": "ru",
            "original_title": "Hello Herman",
            "genre_ids": [
                18
            ],
            "title": "Hello Herman",
            "vote_average": 6.2,
            "overview": "Set in the not so distant future, in Any Town USA, sixteen year old Herman Howards makes a fateful decision. He enters his suburban school and kills thirty nine students, two teachers, and a police officer. Just before his arrest he emails his idol, famous journalist Lax Morales, sending him clips of the shootings captured with Herman's own digital camera. In the clips Herman tells Lax, \"I want to tell my story on your show\". Lax, haunted by his own past, is now face to face with Herman.",
            "release_date": "2012-06-05"
        }
    ]
}